> 2 > teaching the tidyverse
…
---

## Pivot staff data

.small[

```r
staff %>%
  pivot_longer(cols = -faculty_type, 
               names_to = "year", 
               values_to = "percentage")
```

```
## # A tibble: 55 x 3
##    faculty_type              year  percentage
##    <chr>                     <chr>      <dbl>
##  1 Full-Time Tenured Faculty 1975        29  
##  2 Full-Time Tenured Faculty 1989        27.6
##  3 Full-Time Tenured Faculty 1993        25  
##  4 Full-Time Tenured Faculty 1995        24.8
##  5 Full-Time Tenured Faculty 1999        21.8
##  6 Full-Time Tenured Faculty 2001        20.3
##  7 Full-Time Tenured Faculty 2003        19.3
##  8 Full-Time Tenured Faculty 2005        17.8
##  9 Full-Time Tenured Faculty 2007        17.2
## 10 Full-Time Tenured Faculty 2009        16.8
## # … with 45 more rows
```
…
---

## Data

Professor evaluations, from the **openintro** package

.small[

```r
evals
```

```
## # A tibble: 463 x 21
##    score rank  ethnicity gender language   age
##    <dbl> <fct> <fct>     <fct>  <fct>    <int>
##  1   4.7 tenu… minority  female english     36
##  2   4.1 tenu… minority  female english     36
##  3   3.9 tenu… minority  female english     36
##  4   4.8 tenu… minority  female english     36
##  5   4.6 tenu… not mino… male   english     59
##  6   4.3 tenu… not mino… male   english     59
##  7   2.8 tenu… not mino… male   english     59
##  8   4.1 tenu… not mino… male   english     51
##  9   3.4 tenu… not mino… male   english     51
## 10   4.5 tenu… not mino… female english     40
## # … with 453 more rows, and 15 more variables:
## #   cls_perc_eval <dbl>, cls_did_eval <int>,
## #   cls_students <int>, cls_level <fct>,
## #   cls_profs <fct>, cls_credits <fct>,
## #   bty_f1lower <int>, bty_f1upper <int>,
## #   bty_f2upper <int>, bty_m1lower <int>,
## #   bty_m1upper <int>, bty_m2upper <int>,
## #   bty_avg <dbl>, pic_outfit <fct>, pic_color <fct>
```
…
## Rowwise operations

- Lots of discussion around how to do these in the tidyverse, see [github.com/jennybc/row-oriented-workflows](https://github.com/jennybc/row-oriented-workflows) for in depth coverage

- Sometimes you need to do a simple thing, e.g. taking average of repeated measures recorded in columns in a data frame

.small[

```r
evals %>% select(score, starts_with("bty_"))
```

```
## # A tibble: 463 x 8
##    score bty_f1lower bty_f1upper bty_f2upper
##    <dbl>       <int>       <int>       <int>
##  1   4.7           5           7           6
##  2   4.1           5           7           6
##  3   3.9           5           7           6
##  4   4.8           5           7           6
##  5   4.6           4           4           2
##  6   4.3           4           4           2
##  7   2.8           4           4           2
##  8   4.1           5           2           5
##  9   3.4           5           2           5
## 10   4.5           2           5           4
## # … with 453 more rows, and 4 more variables:
## #   bty_m1lower <int>, bty_m1upper <int>,
## #   bty_m2upper <int>, bty_avg <dbl>
```
…
.small[

```r
# install_github("tidyverse/dplyr")
library(dplyr)
evals %>%
  rowwise() %>%
  mutate(bty_avg = mean(c(bty_f1lower, bty_f1upper, bty_f2upper, bty_m1lower, bty_m1upper, bty_m2upper))) %>%
  ungroup() %>%
  select(starts_with("bty_"))
```

```
## # A tibble: 463 x 7
##    bty_f1lower bty_f1upper bty_f2upper bty_m1lower
##          <int>       <int>       <int>       <int>
##  1           5           7           6           2
##  2           5           7           6           2
##  3           5           7           6           2
##  4           5           7           6           2
##  5           4           4           2           2
##  6           4           4           2           2
##  7           4           4           2           2
##  8           5           2           5           2
##  9           5           2           5           2
## 10           2           5           4           3
## # … with 453 more rows, and 3 more variables:
## #   bty_m1upper <int>, bty_m2upper <int>,
## #   bty_avg <dbl>
```
…
